EMP ID,Client,Process,Year,Month,ExpectedHours,ActualHours,Utilization
537,Theorem India Pvt Ltd,Process Training,2011,10,60,62,103
537,Theorem India Pvt Ltd,Process Training,2011,11,80,83,104
537,Theorem India Pvt Ltd,Process Training,2011,12,60,67,112
537,Theorem India Pvt Ltd,Process Training,2012,1,100,99,99
537,Theorem India Pvt Ltd,Process Training,2012,2,100,91,91
537,Theorem India Pvt Ltd,Process Training,2012,3,160,141,88
537,Theorem India Pvt Ltd,Process Training,2012,4,160,124,78
537,Theorem India Pvt Ltd,Process Training,2012,5,160,125,78
537,Theorem India Pvt Ltd,Process Training,2012,6,160,150,94
537,Theorem India Pvt Ltd,Process Training,2012,7,160,144.5,90
537,Theorem India Pvt Ltd,Process Training,2012,8,160,175,109
537,Theorem India Pvt Ltd,Process Training,2012,9,144,111,77
537,Theorem India Pvt Ltd,Process Training,2012,10,144,135.5,94
537,Theorem India Pvt Ltd,Process Training,2012,11,144,133.2,93
537,Theorem India Pvt Ltd,Process Training,2012,12,144,127.75,89
537,Theorem India Pvt Ltd,Process Training,2013,1,160,156.75,98
537,Theorem India Pvt Ltd,Process Training,2013,2,160,129.5,81
537,Theorem India Pvt Ltd,Process Training,2013,3,160,125,78
537,Theorem India Pvt Ltd,Process Training,2013,4,152,139.5,92
537,Theorem India Pvt Ltd,Process Training,2013,5,160,129,81
537,Theorem India Pvt Ltd,Process Training,2013,6,152,126,83
537,Theorem India Pvt Ltd,Process Training,2013,7,160,166.5,104
537,Theorem India Pvt Ltd,Process Training,2013,8,160,174.5,109
537,Theorem India Pvt Ltd,Process Training,2013,9,160,153.5,96
537,Theorem India Pvt Ltd,Process Training,2013,10,140,166.5,119
537,Theorem India Pvt Ltd,Process Training,2013,11,132,143.75,109
537,Theorem India Pvt Ltd,Process Training,2013,12,128,125.5,98
537,Theorem India Pvt Ltd,Process Training,2014,1,136,163,120
537,Theorem India Pvt Ltd,Process Training,2014,2,136,135.5,100
537,Theorem India Pvt Ltd,Process Training,2014,3,136,139.5,103
537,Theorem India Pvt Ltd,Process Training,2014,4,152,170,112
537,Theorem India Pvt Ltd,Process Training,2014,5,96,83.5,87
537,Theorem India Pvt Ltd,Process Training,2014,6,152,157,103
537,Theorem India Pvt Ltd,Process Training,2014,7,40,43.5,109
