Client,Process,Year,Month,ExpectedHours,ActualHours,Utilization
ExactTarget,CDS,2012,9,4000,566,14
ExactTarget,CDS,2012,10,4600,818.75,18
ExactTarget,CDS,2012,11,4000,894,22
ExactTarget,CDS,2012,12,3600,641,18
ExactTarget,CDS,2013,1,4400,832.25,19
ExactTarget,CDS,2013,2,4000,1367.5,34
ExactTarget,CDS,2013,3,4200,1245.5,30
ExactTarget,CDS,2013,4,4400,1518,35
ExactTarget,CDS,2013,5,4400,1413.25,32
ExactTarget,CDS,2013,6,4000,1720.25,43
ExactTarget,CDS,2013,7,4400,2129,48
ExactTarget,CDS,2013,8,4400,2200.5,50
ExactTarget,CDS,2013,9,4080,2842.5,70
ExactTarget,CDS,2013,10,4968,3844,77
ExactTarget,CDS,2013,11,5016,3596,72
ExactTarget,CDS,2013,12,5016,3234.5,64
ExactTarget,CDS,2014,1,6160,3410.25,55
ExactTarget,CDS,2014,2,8320,2946.75,35
ExactTarget,CDS,2014,3,8904,2911.75,33
ExactTarget,CDS,2014,4,10600,3339,32
ExactTarget,CDS,2014,5,8056,3094.75,38
ExactTarget,CDS,2014,6,8440,4842.85,57
ExactTarget,SBD,2012,9,5208,1253,24
ExactTarget,SBD,2012,10,5704,928,16
ExactTarget,SBD,2012,11,4960,1399,28
ExactTarget,SBD,2012,12,4464,1414,32
ExactTarget,SBD,2013,1,5456,1016.25,19
ExactTarget,SBD,2013,2,4960,1456,29
ExactTarget,SBD,2013,3,5208,1013.25,19
ExactTarget,SBD,2013,4,5280,1171,22
ExactTarget,SBD,2013,5,5280,1147.5,22
ExactTarget,SBD,2013,6,4800,1464.75,31
ExactTarget,SBD,2013,7,5280,1874.75,36
ExactTarget,SBD,2013,8,5280,2012.75,38
ExactTarget,SBD,2013,9,4800,1670,35
ExactTarget,SBD,2013,10,5704,2230.25,39
ExactTarget,SBD,2013,11,3192,1507.33,47
ExactTarget,SBD,2013,12,3952,1674.83,42
ExactTarget,SBD,2014,1,4048,2588,64
ExactTarget,SBD,2014,2,3680,2152.3,58
ExactTarget,SBD,2014,3,3864,2455.45,64
ExactTarget,SBD,2014,4,4600,2060.33,45
ExactTarget,SBD,2014,5,3680,1337.34,36
ExactTarget,SBD,2014,6,3840,1468.2,38
ExactTarget,DEAR,2013,2,480,93,19
ExactTarget,DEAR,2013,3,504,35,7
ExactTarget,DEAR,2013,4,528,90,17
ExactTarget,DEAR,2013,5,528,121.5,23
ExactTarget,DEAR,2013,6,480,125,26
ExactTarget,DEAR,2013,7,528,169,32
ExactTarget,DEAR,2013,8,528,234.5,44
ExactTarget,DEAR,2013,9,480,178,37
ExactTarget,DEAR,2013,10,552,254.5,46
ExactTarget,DEAR,2013,11,304,246,81
ExactTarget,DEAR,2013,12,304,229.5,75
ExactTarget,DEAR,2014,1,336,169,50
ExactTarget,DEAR,2014,2,304,254,84
ExactTarget,DEAR,2014,3,336,240,71
ExactTarget,DEAR,2014,4,400,242.55,61
ExactTarget,DEAR,2014,5,304,168.5,55
ExactTarget,DEAR,2014,6,336,314.5,94
ExactTarget,MC,2013,2,160,26,16
ExactTarget,MC,2013,3,168,32,19
ExactTarget,MC,2013,4,176,64,36
ExactTarget,MC,2013,5,176,45,26
ExactTarget,MC,2013,6,160,89,56
ExactTarget,MC,2013,7,176,154,88
ExactTarget,MC,2013,8,176,152,86
ExactTarget,MC,2013,9,160,132,83
ExactTarget,MC,2013,10,184,147,80
ExactTarget,MC,2013,11,152,115,76
ExactTarget,MC,2013,12,152,93.5,62
ExactTarget,MC,2014,1,176,71.25,40
ExactTarget,MC,2014,2,152,80,53
ExactTarget,MC,2014,3,168,113,67
ExactTarget,MC,2014,4,280,154.5,55
ExactTarget,MC,2014,5,304,120.25,40
ExactTarget,MC,2014,6,336,144.4,43
ExactTarget,BM,2014,1,144,14.95,10
ExactTarget,BM,2014,2,320,4,1
ExactTarget,BM,2014,3,320,21.17,7
ExactTarget,BM,2014,4,400,28.92,7
ExactTarget,BM,2014,5,320,15.5,5
ExactTarget,BM,2014,6,336,32,10
ExactTarget,EE,2014,2,152,114.5,75
ExactTarget,EE,2014,3,160,76,48
ExactTarget,EE,2014,4,200,110.17,55
ExactTarget,EE,2014,5,160,30,19
ExactTarget,EE,2014,6,168,79,47
YesMail,QA,2014,1,1232,736.5,60
YesMail,QA,2014,2,1120,594,53
YesMail,QA,2014,3,1176,641.25,55
YesMail,QA,2014,4,800,615.75,77
YesMail,QA,2014,5,608,732.5,120
YesMail,QA,2014,6,672,868,129
YesMail,Reporting,2014,1,704,312.33,44
YesMail,Reporting,2014,2,640,437.33,68
YesMail,Reporting,2014,3,672,474.08,71
YesMail,Reporting,2014,4,400,262.84,66
YesMail,Reporting,2014,5,304,275.75,91
YesMail,Reporting,2014,6,336,424,126
Ignite Digital,Web Development,2013,12,23,23,100
Ignite Digital,Web Development,2014,1,125,125,100
Ignite Digital,Web Development,2014,2,304,86,28
Ignite Digital,Web Development,2014,3,320,114.5,36
Ignite Digital,Web Development,2014,4,384,256,67
Ignite Digital,Web Development,2014,5,320,249,78
Ignite Digital,Web Development,2014,6,504,153.5,30
RocketFuel,AA,2012,9,304,271.2,89
RocketFuel,AA,2012,10,184,211,115
RocketFuel,AA,2012,11,160,176.92,111
RocketFuel,AA,2012,12,144,130,90
RocketFuel,AA,2013,1,176,128,73
RocketFuel,AA,2013,2,152,139.75,92
RocketFuel,AA,2013,3,168,165.38,98
RocketFuel,AA,2013,4,176,159.55,91
RocketFuel,AA,2013,5,176,173.2,98
RocketFuel,AA,2013,6,168,187.7,112
RocketFuel,AA,2013,7,176,157.5,89
RocketFuel,AA,2013,8,176,165.75,94
RocketFuel,AA,2013,9,160,155.95,97
RocketFuel,AA,2013,10,184,169.9,92
RocketFuel,AA,2013,11,152,187.07,123
RocketFuel,AA,2013,12,152,167.95,110
RocketFuel,AA,2014,1,176,180.95,103
RocketFuel,AA,2014,2,152,156.75,103
RocketFuel,AA,2014,3,168,174.1,104
RocketFuel,AA,2014,4,200,195.55,98
RocketFuel,AA,2014,5,160,164.1,103
RocketFuel,AA,2014,6,168,173.95,104
Organic,AA,2012,9,152,119,78
Organic,AA,2012,10,184,149,81
Organic,AA,2012,11,160,134,84
Organic,AA,2012,12,144,125,87
Organic,AA,2013,1,168,141,84
Organic,AA,2013,2,152,120.25,79
Organic,AA,2013,3,168,125,74
Organic,AA,2013,4,176,133.5,76
Organic,AA,2013,5,176,148,84
Organic,AA,2013,6,168,112,67
Organic,AA,2013,7,168,137.5,82
Organic,AA,2013,8,176,132,75
Organic,AA,2013,9,160,119,74
Organic,AA,2013,10,184,152,83
Organic,AA,2013,11,152,123,81
Organic,AA,2013,12,136,111,82
Organic,AA,2014,1,168,131,78
Organic,AA,2014,2,152,87,57
Organic,AA,2014,3,168,91,54
Organic,AA,2014,4,200,88,44
Organic,AA,2014,5,152,53,35
Organic,AA,2014,6,168,26,15
