Client,Process,Year,Month,ExpectedHours,ActualHours,Utilization
Epsilon,Custom Solutions - EMEA,2012,1,360,1250,86
Epsilon,Custom Solutions - EMEA,2012,2,360,1122,79
Epsilon,Custom Solutions - EMEA,2012,3,360,1322,91
Epsilon,Custom Solutions - EMEA,2012,4,360,1278,89
Epsilon,Custom Solutions - EMEA,2012,5,360,1264,80
Epsilon,Custom Solutions - EMEA,2012,6,320,1196,84
Epsilon,Custom Solutions - EMEA,2012,7,320,1084,81
Epsilon,Custom Solutions - EMEA,2012,8,320,1165,87
Epsilon,Custom Solutions - EMEA,2012,9,320,1049,82
Epsilon,Custom Solutions - EMEA,2012,10,320,1095,78
Epsilon,Custom Solutions - EMEA,2012,11,320,1262,90
Epsilon,Custom Solutions - EMEA,2012,12,320,1062,83
Epsilon,Custom Solutions - EMEA,2013,1,320,1078,77
Epsilon,Custom Solutions - EMEA,2013,2,320,1027,80
Epsilon,Custom Solutions - EMEA,2013,3,320,990,77
Epsilon,Custom Solutions - EMEA,2013,4,240,901,80
Epsilon,Custom Solutions - EMEA,2013,5,240,884,88
Epsilon,Custom Solutions - EMEA,2013,6,240,884,84
Epsilon,Custom Solutions - EMEA,2013,7,240,883,77
Epsilon,Custom Solutions - EMEA,2013,8,240,928,88
Epsilon,Custom Solutions - EMEA,2013,9,240,883,83
Epsilon,Custom Solutions - EMEA,2013,10,240,989,90
Epsilon,Custom Solutions - EMEA,2013,11,240,706,84
Epsilon,Custom Solutions - EMEA,2013,12,240,733,76
Epsilon,Custom Solutions - EMEA,2014,1,240,803,75
Epsilon,Custom Solutions - EMEA,2014,2,240,710,74
Epsilon,Custom Solutions - EMEA,2014,3,240,693,69
Epsilon,Custom Solutions - EMEA,2014,4,160,531,81
Epsilon,Custom Solutions - EMEA,2014,5,160,556,83
Epsilon,Custom Solutions - EMEA,2014,6,160,541,81
