Emp ID,Client,Process,Year,Month,ExpectedHours,ActualHours,Utilization
857,Theorem India Pvt Ltd,Process Training,2012,4,60,67.5,113
857,Theorem India Pvt Ltd,Process Training,2012,5,160,147.75,92
857,Theorem India Pvt Ltd,Process Training,2012,6,160,131.5,82
857,Theorem India Pvt Ltd,Process Training,2012,7,160,158,99
857,Theorem India Pvt Ltd,Process Training,2012,8,160,179.5,112
857,Theorem India Pvt Ltd,Process Training,2012,9,160,144.5,90
857,Theorem India Pvt Ltd,Process Training,2012,10,160,131.5,82
857,Theorem India Pvt Ltd,Process Training,2012,11,160,138,86
857,Theorem India Pvt Ltd,Process Training,2012,12,160,170,106
857,Theorem India Pvt Ltd,Process Training,2013,1,160,172.75,108
857,Theorem India Pvt Ltd,Process Training,2013,2,160,142,89
857,Theorem India Pvt Ltd,Process Training,2013,3,160,151,94
857,Theorem India Pvt Ltd,Process Training,2013,4,160,153,96
857,Theorem India Pvt Ltd,Process Training,2013,5,160,133,83
857,Theorem India Pvt Ltd,Process Training,2013,6,160,152,95
857,Theorem India Pvt Ltd,Process Training,2013,7,160,171,107
857,Theorem India Pvt Ltd,Process Training,2013,8,160,162,101
857,Theorem India Pvt Ltd,Process Training,2013,9,160,134,84
857,Theorem India Pvt Ltd,Process Training,2013,10,160,166,104
857,Theorem India Pvt Ltd,Process Training,2013,11,160,154,96
857,Theorem India Pvt Ltd,Process Training,2013,12,160,137,86
857,Theorem India Pvt Ltd,Process Training,2014,1,160,154,96
857,Theorem India Pvt Ltd,Process Training,2014,2,160,145,91
857,Theorem India Pvt Ltd,Process Training,2014,3,160,165,103
857,Theorem India Pvt Ltd,Process Training,2014,4,160,169,106
857,Theorem India Pvt Ltd,Process Training,2014,5,160,165,103
857,Theorem India Pvt Ltd,Process Training,2014,6,160,177,111
857,Theorem India Pvt Ltd,Process Training,2014,7,32,35.5,111
