Client,Process,Year,Month,ExpectedHours,ActualHours,Utilization
Microsoft,MSN - EMEA,2010,1,,,53
Microsoft,MSN - EMEA,2010,2,,,93
Microsoft,MSN - EMEA,2010,3,,,99
Microsoft,MSN - EMEA,2010,4,,,95
Microsoft,MSN - EMEA,2010,5,,,126
Microsoft,MSN - EMEA,2010,6,,,92
Microsoft,MSN - EMEA,2010,7,,,64
Microsoft,MSN - EMEA,2010,8,,,51
Microsoft,MSN - EMEA,2010,9,,,88
Microsoft,MSN - EMEA,2010,10,,,83
Microsoft,MSN - EMEA,2010,11,,,81
Microsoft,MSN - EMEA,2010,12,,,90
Microsoft,MSN - EMEA,2011,1,,,70
Microsoft,MSN - EMEA,2011,2,,,114
Microsoft,MSN - EMEA,2011,3,,,150.52
Microsoft,MSN - EMEA,2011,4,,,118.37
Microsoft,MSN - EMEA,2011,5,,,93.83
Microsoft,MSN - EMEA,2011,6,,,104.02
Microsoft,MSN - EMEA,2011,7,,,42.80
Microsoft,MSN - EMEA,2011,8,,,31.38
Microsoft,MSN - EMEA,2011,9,5456,"2,109",39
Microsoft,MSN - EMEA,2011,10,6048,"2,366",39
Microsoft,MSN - EMEA,2011,11,6336,"4,479",71
Microsoft,MSN - EMEA,2011,12,5624,"4,261",76
Microsoft,MSN - EMEA,2012,1,6552,"2,790",43
Microsoft,MSN - EMEA,2012,2,6552,"3,658",56
Microsoft,MSN - EMEA,2012,3,6864,"5,051",74
Microsoft,MSN - EMEA,2012,4,6400,"3,110",49
Microsoft,MSN - EMEA,2012,5,5760,"3,890",68
Microsoft,MSN - EMEA,2012,6,6720,"3,282",49
Microsoft,MSN - EMEA,2012,7,7040,"4,785",68
Microsoft,MSN - EMEA,2012,8,7544,"4,234",56
Microsoft,MSN - EMEA,2012,9,6880,"5,874",85
Microsoft,MSN - EMEA,2012,10,7728,"6,371",82
Microsoft,MSN - EMEA,2012,11,9328,"6,368",68
Microsoft,MSN - EMEA,2012,12,9760,"5,474",56
Microsoft,MSN - EMEA,2013,1,11712,7102,61
Microsoft,MSN - EMEA,2013,2,10560,6397,61
Microsoft,MSN - EMEA,2013,3,10416,6754,65
Microsoft,MSN - EMEA,2013,4,10912,6784,62
Microsoft,MSN - EMEA,2013,5,10416,7432,71
Microsoft,MSN - EMEA,2013,6,9397,6622,70
Microsoft,MSN - EMEA,2013,7,9912,5493,55
Microsoft,MSN - EMEA,2013,8,10417,"4,349",42
Microsoft,MSN - EMEA,2013,9,10752,"5,950",55
Microsoft,MSN - EMEA,2013,10,11088,"8,338",75
Microsoft,MSN - EMEA,2013,11,11088,"8,710",79
Microsoft,MSN - EMEA,2013,12,11310,"8,374",74
Microsoft,MSN - EMEA,2014,1,12191,"5,608",46
Microsoft,MSN - EMEA,2014,2,10721,"5,921",55
Microsoft,MSN - EMEA,2014,3,11257,"5,803",52
Microsoft,MSN - EMEA,2014,4,11256,"6,712",60
Microsoft,MSN - EMEA,2014,5,11795,"8,234",70
Microsoft,MSN - EMEA,2014,6,10539,"8,747",83
Microsoft,MSN - APAC,2013,1,704,493,70
Microsoft,MSN - APAC,2013,2,640,416,65
Microsoft,MSN - APAC,2013,3,640,610,95
Microsoft,MSN - APAC,2013,4,544,367,67
Microsoft,MSN - APAC,2013,5,672,527,78
Microsoft,MSN - APAC,2013,6,654,425,65
Microsoft,MSN - APAC,2013,7,740,466,63
Microsoft,MSN - APAC,2013,8,650,401,62
Microsoft,MSN - APAC,2013,9,1008,640,63
Microsoft,MSN - APAC,2013,10,1008,654,65
Microsoft,MSN - APAC,2013,11,840,722,86
Microsoft,MSN - APAC,2013,12,840,708,84
Microsoft,MSN - APAC,2014,1,920,577,63
Microsoft,MSN - APAC,2014,2,800,519,65
Microsoft,MSN - APAC,2014,3,840,647,77
Microsoft,MSN - APAC,2014,4,840,565,67
Microsoft,MSN - APAC,2014,5,840,612,73
Microsoft,MSN - APAC,2014,6,672,589,88
