Rowid,Employee id,Old Supervisor,New Supervisor,Date Effective
1,1328,3799,3968,13/11/2018
2,4010,3799,3968,13/11/2018
3,3997,3799,3968,13/11/2018
4,4003,3799,3968,13/11/2018
5,4007,3799,3968,13/11/2018
6,3849,3799,3968,13/11/2018
7,3803,3799,3968,13/11/2018
8,4008,3799,3968,13/11/2018
9,3799,3988,3968,13/11/2018
