Rowid,Employee id,Old Supervisor,New Supervisor,Date Effective
1,1082,3706,3706,25/05/2017
2,1429,3706,3706,25/05/2017
3,1434,3706,3706,25/05/2017
4,1961,3706,3706,25/05/2017
5,245,3706,3706,25/05/2017
6,2781,3706,3706,25/05/2017
7,3237,3706,3706,25/05/2017
8,3706,3801,321,10/1/2018
9,3800,3706,3706,10/2/2017
10,3969,3706,3706,3/5/2018
11,3980,3706,3706,4/9/2018
12,3985,3706,3706,4/16/2018
13,3986,3706,3706,4/16/2018
14,4002,3706,3706,6/14/2018
