Rowid,Employee id,Old Supervisor,New Supervisor,Date Effective
1,2242,171,2508,9/1/2018
2,187,171,2508,9/1/2018
3,1860,171,2508,9/1/2018
4,2993,171,2508,9/1/2018
5,1809,171,2508,9/1/2018
6,2678,171,2508,9/1/2018
7,1206,171,2508,9/1/2018
8,3426,171,2508,9/1/2018
9,3460,171,2508,9/1/2018
,,,,
,,,,
,,,,
,,,,
